name,id,tmsCustomerAccountNumber,brandShortName,active,tmsCustomerAccountId
ZAHID TRACTOR AND HEAVY MACHINERY COMPANY LIMITED DEMAG,1900005,2093,Demag,true,9069
STAFFORD TOWER CRANE OF AMERICA LLC DEMAG,1900007,,Demag,true,
SCORPION EQUIPMENT SERVICES DEMAG,1900009,,Demag,true,
STRONGCO LP DEMAG,1900010,,Demag,true,
SCOTT MACON EQUIPMENT LOUISIANA INC DEMAG,2000002,32152,Demag,true,2434246
TEREX CRANES GERMANY GMBH DEMAG,2100001,32157,Demag,true,2434251
Agent Testing account,2300037,30291022,Demag,true,14830230
AL QAHTANI VEHICLE AND MACHINERY Demag,2400002,288874,Demag,true,14136191
A CRANE RENTAL LLC Demag,2400003,302910,Demag,true,14830230
ALL CRANE & EQUIPMENT RENTAL CORPORATION Demag,2400004,32071,Demag,true,2434165
ALL CRANE RENTAL CORP. Demag,2400005,32232,Demag,true,2434326
ARAB EQUIPMENT ESTABLISHMENT Demag,2400006,127412,Demag,true,7215146
"ARRENDO SERV, S.A. DE C.V. Demag",2400007,281316,Demag,true,13759195
"ART ALGER, INC. DBA PENINSULA CRANE & RIGGING Demag",2400008,367797,Demag,true,17958259
BARNHART CRANE & RIGGING Demag,2400009,32015,Demag,true,2434109
BARNHART NORTHEAST INC Demag,2400010,32718,Demag,true,2451132
BAY CRANE SERVICE INC Demag,2400011,32778,Demag,true,2451192
BAY CRANE SERVICE OF LI INC Demag,2400012,32753,Demag,true,2451167
BRAGG INVESTMENT CO Demag,2400014,32095,Demag,true,2434189
BREWER CRANE & RIGGING Demag,2400015,32766,Demag,true,2451180
"BRIGGS EQUIPMENT, INC. Demag",2400016,130807,Demag,true,7389132
CAPITAL CITY GROUP INC Demag,2400017,32124,Demag,true,2434218
"CHESAPEAKE CONSTRUCTION EQUIPMENT, INC. Demag",2400019,32169,Demag,true,2434263
CLARK RIGGING & RENTAL CORPORATION Demag,2400020,32159,Demag,true,2434253
COAST CRANE COMPANY Demag,2400021,95505,Demag,true,5786105
COMASCO LTD Demag,2400022,2726,Demag,true,46180
CONSULTANTS F. DRAPEAU INC. Demag,2400023,32211,Demag,true,2434305
CORMAN CONSTRUCTION INC Demag,2400024,32715,Demag,true,2451129
CRANE & RIG SERVICES LLC Demag,2400025,305223,Demag,true,14946240
CRANEWORKS SOUTHWEST INC Demag,2400026,264681,Demag,true,13106957
DAVIS MOTOR CRANE SERVICE Demag,2400027,32086,Demag,true,2434180
DEEP SOUTH CRANE & RIGGING LLC Demag,2400028,32733,Demag,true,2451147
DEEP SOUTH CRANE RENTALS INC Demag,2400029,32771,Demag,true,2451185
DISTRIBUIDORA MEGAMAK SA DE CV Demag,2400030,39601,Demag,true,2837095
EXACT CRANE & EQUIPMENT CORP. Demag,2400032,130643,Demag,true,7377132
GRUAS SAN BLAS S.A. Demag,2400033,32048,Demag,true,2434142
GULF SPECIAL SERVICES INC Demag,2400034,32723,Demag,true,2451137
H BROWN MACHINE SHOP Demag,2400035,32752,Demag,true,2451166
INQUIPCO Demag,2400036,32147,Demag,true,2434241
INTERNATIONAL CRANES & EQUIPMENT EXCHANGE Demag,2400037,32759,Demag,true,2451173
JEFFERS CRANE SERVICE INC Demag,2400038,32275,Demag,true,2434369
JEFFERSON MACHINE CO INC Demag,2400039,53231,Demag,true,3550116
KIEWIT OFFSHORE SERVICES Demag,2400040,32703,Demag,true,2451117
LARAMIE ENTERPRISE INC Demag,2400041,32794,Demag,true,2451208
LARRY COLLIER CRANE PARTS & SERVICE Demag,2400042,112362,Demag,true,6566130
"LIFT SOURCE MACHINERY, LTD Demag",2400043,237075,Demag,true,11901192
MAMMOET CANADA EASTERN LTD Demag,2400044,140429,Demag,true,7828230
MAMMOET USA SOUTH INC Demag,2400045,78722,Demag,true,4909098
MAQUINAS DIESEL SA DE CV MADISA Demag,2400047,32103,Demag,true,2434197
MCCLUNG LOGAN EQUIPMENT CO INC Demag,2400048,2851,Demag,true,46305
MI JACK CANADA INC Demag,2400049,20201,Demag,true,1755096
MMS MOBILE CRANES CC Demag,2400050,164985,Demag,true,8392140
MOHAMED ABDULRAHMAN AL BAHAR LLC Demag,2400051,32220,Demag,true,2434314
MONTGOMERY SALES LTD Demag,2400052,32049,Demag,true,2434143
MONTY TAMER INTL CRANE CORP INC Demag,2400053,32107,Demag,true,2434201
MYSHAK SALES & RENTALS LTD. Demag,2400055,188774,Demag,true,9570190
"NESCO, LLC Demag",2400057,26582,Demag,true,2182296
NORTHEAST CRANE SALES & SERVICE LLC Demag,2400059,32224,Demag,true,2434318
PHILLIPPI EQUIPMENT CO Demag,2400060,32799,Demag,true,2451213
PKG CONTRACTING INC Demag,2400061,148744,Demag,true,8004678
RUSH TRUCK CENTERS OF OKLAHOMA Demag,2400062,32242,Demag,true,2434336
RUSH TRUCK CENTERS OF TEXAS Demag,2400063,264728,Demag,true,13107004
SMILEY LIFTING SOLUTIONS LLC Demag,2400064,148700,Demag,true,8000714
"SNELL CRANE SERVICE, INC Demag",2400065,313581,Demag,true,15364226
STEPHENSON EQUIPMENT INC Demag,2400066,2775,Demag,true,46229
STERETT EQUIPMENT COMPANY LLC Demag,2400067,139753,Demag,true,7807237
STERLING CRANE INC Demag,2400068,32082,Demag,true,2434176
SUPERIOR CRANES INC Demag,2400069,110791,Demag,true,6509198
TEREX LATIN AMERICA Demag,2400070,158198,Demag,true,8141141
"TEREX USA, LLC. Demag",2400071,50446,Demag,true,3405262
"TES, INC. Demag",2400072,257614,Demag,true,12921190
"THE EMPIRE CRANE COMPANY, LLC Demag",2400073,32253,Demag,true,2434347
THE RASMUSSEN GROUP INC Demag,2400074,32034,Demag,true,2434128
TNT CRANE & RIGGING INC Demag,2400075,32174,Demag,true,2434268
TRANSPORTES Y GRUAS AURIGA SA DE CV Demag,2400076,164643,Demag,true,8379134
WHECO CORP Demag,2400077,105983,Demag,true,6292100
WYOMING MACHINERY COMPANY Demag,2400078,267687,Demag,true,13109963
ZAHID TRACTOR AND HEAVY MACHINERY COMPANY LIMITED Demag,2400079,2093,Demag,true,9069
CJ DRILLING INC Demag,2400081,736477,Demag,true,19029315
ZAHID TRACTOR AND HEAVY MACHINERY COMPANY LIMITED DEMAG Demag,2400082,2093,Demag,true,9069
COAST CRANE COMPANY Utilities Demag,2400083,95505,Demag,true,5786105
"TEREX USA, LLC. TCS Demag",2400084,50446,Demag,true,3405262
"TEREX USA, LLC.-FUCHS Demag",2400085,50446,Demag,true,3405262
A CRANE RENTAL LLC Demag Testing account Demag,2400086,302910,Demag,true,14830230
